module codigos.ufsc.br/g.manoel/pi_das_2021_2

go 1.17

require (
	github.com/eclipse/paho.mqtt.golang v1.3.5
	github.com/gofiber/fiber/v2 v2.22.0
	github.com/influxdata/influxdb-client-go/v2 v2.6.0
	github.com/spf13/viper v1.9.0
)

require (
	github.com/andybalholm/brotli v1.0.2 // indirect
	github.com/deepmap/oapi-codegen v1.8.2 // indirect
	github.com/fsnotify/fsnotify v1.5.1 // indirect
	github.com/gorilla/websocket v1.4.2 // indirect
	github.com/hashicorp/hcl v1.0.0 // indirect
	github.com/influxdata/line-protocol v0.0.0-20200327222509-2487e7298839 // indirect
	github.com/jinzhu/inflection v1.0.0 // indirect
	github.com/jinzhu/now v1.1.4 // indirect
	github.com/klauspost/compress v1.13.4 // indirect
	github.com/magiconair/properties v1.8.5 // indirect
	github.com/mattn/go-sqlite3 v1.14.11 // indirect
	github.com/mitchellh/mapstructure v1.4.2 // indirect
	github.com/pelletier/go-toml v1.9.4 // indirect
	github.com/pkg/errors v0.9.1 // indirect
	github.com/spf13/afero v1.6.0 // indirect
	github.com/spf13/cast v1.4.1 // indirect
	github.com/spf13/jwalterweatherman v1.1.0 // indirect
	github.com/spf13/pflag v1.0.5 // indirect
	github.com/subosito/gotenv v1.2.0 // indirect
	github.com/valyala/bytebufferpool v1.0.0 // indirect
	github.com/valyala/fasthttp v1.31.0 // indirect
	github.com/valyala/tcplisten v1.0.0 // indirect
	golang.org/x/net v0.0.0-20210510120150-4163338589ed // indirect
	golang.org/x/sys v0.0.0-20210823070655-63515b42dcdf // indirect
	golang.org/x/text v0.3.6 // indirect
	gopkg.in/ini.v1 v1.63.2 // indirect
	gopkg.in/yaml.v2 v2.4.0 // indirect
	gorm.io/driver/sqlite v1.2.6 // indirect
	gorm.io/gorm v1.22.5 // indirect
)
